<?xml version="1.0" encoding="UTF-8" standalone="no"?>
<svg
   xmlns:dc="http://purl.org/dc/elements/1.1/"
   xmlns:cc="http://creativecommons.org/ns#"
   xmlns:rdf="http://www.w3.org/1999/02/22-rdf-syntax-ns#"
   xmlns:svg="http://www.w3.org/2000/svg"
   xmlns="http://www.w3.org/2000/svg"
   xmlns:sodipodi="http://sodipodi.sourceforge.net/DTD/sodipodi-0.dtd"
   xmlns:inkscape="http://www.inkscape.org/namespaces/inkscape"
   version="1.1"
   width="372"
   height="212"
   id="svg1445"
   sodipodi:docname="activity 1.svg"
   inkscape:version="0.92.4 (unknown)">
  <metadata
     id="metadata1449">
    <rdf:RDF>
      <cc:Work
         rdf:about="">
        <dc:format>image/svg+xml</dc:format>
        <dc:type
           rdf:resource="http://purl.org/dc/dcmitype/StillImage" />
        <dc:title></dc:title>
      </cc:Work>
    </rdf:RDF>
  </metadata>
  <sodipodi:namedview
     pagecolor="#ffffff"
     bordercolor="#666666"
     borderopacity="1"
     objecttolerance="10"
     gridtolerance="10"
     guidetolerance="10"
     inkscape:pageopacity="0"
     inkscape:pageshadow="2"
     inkscape:window-width="1920"
     inkscape:window-height="981"
     id="namedview1447"
     showgrid="false"
     inkscape:zoom="2.2264151"
     inkscape:cx="173.57873"
     inkscape:cy="115.5507"
     inkscape:window-x="0"
     inkscape:window-y="97"
     inkscape:window-maximized="1"
     inkscape:current-layer="g1443" />
  <defs
     id="defs1305" />
  <g
     id="g1443">
    <g
       transform="translate(-262,-246) scale(1,1)"
       id="g1309">
      <rect
         fill="#ffffff"
         stroke="none"
         x="272"
         y="256"
         width="21"
         height="96"
         id="rect1307" />
    </g>
    <g
       transform="translate(-262,-246) scale(1,1)"
       id="g1313">
      <path
         fill="none"
         stroke="#000000"
         d="M 272 256 L 293 256 L 293 352 L 272 352 L 272 256 Z Z"
         stroke-miterlimit="10"
         stroke-width="2"
         id="path1311" />
    </g>
    <g
       transform="translate(-262,-246) scale(1,1)"
       id="g1317">
      <path
         fill="none"
         stroke="#000000"
         d="M 624 256 L 272 256 L 272 352 L 624 352"
         stroke-miterlimit="10"
         stroke-width="2"
         id="path1315" />
    </g>
    <g
       transform="translate(-262.89831,-237.91525)"
       id="g1325">
      <g
         id="g1323"
         transform="rotate(-90,287.60435,13.083078)">
        <path
           transform="rotate(-90,290,14)"
           id="path1319"
           d=""
           inkscape:connector-curvature="0"
           style="fill:none;stroke:none" />
        <text
           font-size="13px"
           font-style="normal"
           font-weight="normal"
           text-decoration="none"
           x="-23"
           y="13"
           id="text1321"
           style="font-style:normal;font-weight:normal;font-size:13px;font-family:Arial;text-decoration:none;text-decoration-line:none;fill:#000000;stroke:none">Thread #1</text>
      </g>
    </g>
    <g
       transform="translate(-262,-246) scale(1,1)"
       id="g1329">
      <rect
         fill="#ffffff"
         stroke="none"
         x="272"
         y="352"
         width="21"
         height="96"
         id="rect1327" />
    </g>
    <g
       transform="translate(-262,-246) scale(1,1)"
       id="g1333">
      <path
         fill="none"
         stroke="#000000"
         d="M 272 352 L 293 352 L 293 448 L 272 448 L 272 352 Z Z"
         stroke-miterlimit="10"
         stroke-width="2"
         id="path1331" />
    </g>
    <g
       transform="translate(-262,-246) scale(1,1)"
       id="g1337">
      <path
         fill="none"
         stroke="#000000"
         d="M 624 352 L 272 352 L 272 448 L 624 448"
         stroke-miterlimit="10"
         stroke-width="2"
         id="path1335" />
    </g>
    <g
       transform="translate(-260.20339,-243.75424)"
       id="g1345">
      <g
         id="g1343"
         transform="rotate(-90,335.205,62.423207)">
        <path
           transform="rotate(-90,338,62)"
           id="path1339"
           d=""
           inkscape:connector-curvature="0"
           style="fill:none;stroke:none" />
        <text
           font-size="13px"
           font-style="normal"
           font-weight="normal"
           text-decoration="none"
           x="-29.288136"
           y="13"
           id="text1341"
           style="font-style:normal;font-weight:normal;font-size:13px;font-family:Arial;text-decoration:none;text-decoration-line:none;fill:#000000;stroke:none">Thread #2</text>
      </g>
    </g>
    <g
       transform="translate(-262,-246) scale(1,1)"
       id="g1349">
      <path
         fill="#C0C0C0"
         stroke="none"
         d="M 337 287 L 437 287 Q 447 287 447 297 L 447 317 Q 447 327 437 327 L 337 327 Q 327 327 327 317 L 327 297 Q 327 287 337 287 Z"
         opacity="0.2"
         id="path1347" />
    </g>
    <g
       transform="translate(-262,-246) scale(1,1)"
       id="g1353">
      <path
         fill="#ffffff"
         stroke="none"
         d="M 330 280 L 430 280 Q 440 280 440 290 L 440 310 Q 440 320 430 320 L 330 320 Q 320 320 320 310 L 320 290 Q 320 280 330 280 Z"
         id="path1351" />
    </g>
    <g
       transform="translate(-262,-246) scale(1,1)"
       id="g1357">
      <path
         fill="none"
         stroke="#000000"
         d="M 330 280 L 430 280 Q 440 280 440 290 L 440 310 Q 440 320 430 320 L 330 320 Q 320 320 320 310 L 320 290 Q 320 280 330 280 Z"
         stroke-miterlimit="10"
         id="path1355" />
    </g>
    <g
       transform="translate(-255.71186,-242.85593)"
       id="g1365">
      <g
         id="g1363">
        <path
           id="path1359"
           d=""
           inkscape:connector-curvature="0"
           style="fill:none;stroke:none" />
        <text
           font-size="13px"
           font-style="normal"
           font-weight="bold"
           text-decoration="none"
           x="341"
           y="299.5"
           id="text1361"
           style="font-style:normal;font-weight:bold;font-size:13px;font-family:Arial;text-decoration:none;text-decoration-line:none;fill:#000000;stroke:none">y1 := g(x1)</text>
      </g>
    </g>
    <g
       transform="translate(-262,-246) scale(1,1)"
       id="g1369">
      <path
         fill="#C0C0C0"
         stroke="none"
         d="M 481 287 L 581 287 Q 591 287 591 297 L 591 317 Q 591 327 581 327 L 481 327 Q 471 327 471 317 L 471 297 Q 471 287 481 287 Z"
         opacity="0.2"
         id="path1367" />
    </g>
    <g
       transform="translate(-262,-246) scale(1,1)"
       id="g1373">
      <path
         fill="#ffffff"
         stroke="none"
         d="M 474 280 L 574 280 Q 584 280 584 290 L 584 310 Q 584 320 574 320 L 474 320 Q 464 320 464 310 L 464 290 Q 464 280 474 280 Z"
         id="path1371" />
    </g>
    <g
       transform="translate(-262,-246) scale(1,1)"
       id="g1377">
      <path
         fill="none"
         stroke="#000000"
         d="M 474 280 L 574 280 Q 584 280 584 290 L 584 310 Q 584 320 574 320 L 474 320 Q 464 320 464 310 L 464 290 Q 464 280 474 280 Z"
         stroke-miterlimit="10"
         id="path1375" />
    </g>
    <g
       transform="translate(-262,-246) scale(1,1)"
       id="g1385">
      <g
         id="g1383">
        <path
           fill="none"
           stroke="none"
           id="path1379" />
        <text
           font-size="13px"
           font-style="normal"
           font-weight="bold"
           text-decoration="none"
           x="509.85593"
           y="303.09323"
           id="text1381"
           style="font-style:normal;font-weight:bold;font-size:13px;font-family:Arial;text-decoration:none;text-decoration-line:none;fill:#000000;stroke:none">f(y1)</text>
      </g>
    </g>
    <g
       transform="translate(-262,-246) scale(1,1)"
       id="g1389">
      <path
         fill="none"
         stroke="#000000"
         d="M 441 300 L 463 300"
         stroke-miterlimit="10"
         id="path1387" />
    </g>
    <g
       transform="translate(-262,-246) scale(1,1)"
       id="g1393">
      <path
         fill="none"
         stroke="#000000"
         d="M 452.83732514237585 304.209517756016 L 463 300 L 452.83732514237585 295.790482243984"
         stroke-miterlimit="10"
         id="path1391" />
    </g>
    <g
       transform="translate(-262,-246) scale(1,1)"
       id="g1397">
      <path
         fill="none"
         stroke="#000000"
         d="M 441 396 L 463 396"
         stroke-miterlimit="10"
         id="path1395" />
    </g>
    <g
       transform="translate(-262,-246) scale(1,1)"
       id="g1401">
      <path
         fill="none"
         stroke="#000000"
         d="M 452.83732514237585 400.209517756016 L 463 396 L 452.83732514237585 391.790482243984"
         stroke-miterlimit="10"
         id="path1399" />
    </g>
    <g
       transform="translate(-262,-246) scale(1,1)"
       id="g1405">
      <path
         fill="#C0C0C0"
         stroke="none"
         d="M 337 383 L 437 383 Q 447 383 447 393 L 447 413 Q 447 423 437 423 L 337 423 Q 327 423 327 413 L 327 393 Q 327 383 337 383 Z"
         opacity="0.2"
         id="path1403" />
    </g>
    <g
       transform="translate(-262,-246) scale(1,1)"
       id="g1409">
      <path
         fill="#ffffff"
         stroke="none"
         d="M 330 376 L 430 376 Q 440 376 440 386 L 440 406 Q 440 416 430 416 L 330 416 Q 320 416 320 406 L 320 386 Q 320 376 330 376 Z"
         id="path1407" />
    </g>
    <g
       transform="translate(-262,-246) scale(1,1)"
       id="g1413">
      <path
         fill="none"
         stroke="#000000"
         d="M 330 376 L 430 376 Q 440 376 440 386 L 440 406 Q 440 416 430 416 L 330 416 Q 320 416 320 406 L 320 386 Q 320 376 330 376 Z"
         stroke-miterlimit="10"
         id="path1411" />
    </g>
    <g
       transform="translate(-248.07627,-242.40678)"
       id="g1421">
      <g
         id="g1419">
        <path
           id="path1415"
           d=""
           inkscape:connector-curvature="0"
           style="fill:none;stroke:none" />
        <text
           font-size="13px"
           font-style="normal"
           font-weight="bold"
           text-decoration="none"
           x="336.05933"
           y="394.60168"
           id="text1417"
           style="font-style:normal;font-weight:bold;font-size:13px;font-family:Arial;text-decoration:none;text-decoration-line:none;fill:#000000;stroke:none">y2 := g(x2)</text>
      </g>
    </g>
    <g
       transform="translate(-262,-246) scale(1,1)"
       id="g1425">
      <path
         fill="#C0C0C0"
         stroke="none"
         d="M 481 383 L 581 383 Q 591 383 591 393 L 591 413 Q 591 423 581 423 L 481 423 Q 471 423 471 413 L 471 393 Q 471 383 481 383 Z"
         opacity="0.2"
         id="path1423" />
    </g>
    <g
       transform="translate(-262,-246) scale(1,1)"
       id="g1429">
      <path
         fill="#ffffff"
         stroke="none"
         d="M 474 376 L 574 376 Q 584 376 584 386 L 584 406 Q 584 416 574 416 L 474 416 Q 464 416 464 406 L 464 386 Q 464 376 474 376 Z"
         id="path1427" />
    </g>
    <g
       transform="translate(-262,-246) scale(1,1)"
       id="g1433">
      <path
         fill="none"
         stroke="#000000"
         d="M 474 376 L 574 376 Q 584 376 584 386 L 584 406 Q 584 416 574 416 L 474 416 Q 464 416 464 406 L 464 386 Q 464 376 474 376 Z"
         stroke-miterlimit="10"
         id="path1431" />
    </g>
    <g
       transform="translate(-235.94915,-241.05933)"
       id="g1441">
      <g
         id="g1439">
        <path
           id="path1435"
           d=""
           inkscape:connector-curvature="0"
           style="fill:none;stroke:none" />
        <text
           font-size="13px"
           font-style="normal"
           font-weight="bold"
           text-decoration="none"
           x="486.5"
           y="395.5"
           id="text1437"
           style="font-style:normal;font-weight:bold;font-size:13px;font-family:Arial;text-decoration:none;text-decoration-line:none;fill:#000000;stroke:none">f(y2)</text>
      </g>
    </g>
  </g>
</svg>
